jp\vendingmachine\VendingMachineService.class
jp\vendingmachine\ItemC.class
jp\vendingmachine\ChangeAvailability.class
jp\vendingmachine\ItemB.class
jp\vendingmachine\RunUserSimulator.class
jp\vendingmachine\VendingMachine.class
jp\vendingmachine\ItemA.class
jp\vendingmachine\Item.class
jp\vendingmachine\Money.class
